date,0.0,1.0,2.0,3.0,4.0,5.0,6.0,7.0,8.0,9.0,10.0,11.0,12.0,13.0,14.0,15.0,16.0,17.0,18.0,19.0,20.0,21.0,22.0,23.0,24.0,25.0,26.0,27.0,28.0,29.0,30.0,31.0,32.0,33.0,34.0,35.0,36.0,37.0,38.0,39.0,40.0,41.0,42.0,43.0,44.0,45.0,46.0,47.0,48.0,49.0,50.0,51.0,52.0,53.0,54.0,55.0,56.0,57.0,58.0,59.0,60.0,61.0,62.0,63.0,64.0,65.0,66.0,67.0,68.0,69.0,70.0,71.0,72.0,73.0,74.0,75.0,76.0,77.0,78.0,79.0,80.0,81.0,82.0,83.0,84.0,85.0,86.0,87.0,88.0,89.0,90.0,91.0,92.0,93.0,94.0,95.0
2017-10-31,1065224.64,816837.1273000003,1052419.9900000002,1078367.3900000006,1064330.9199999995,1055569.869999999,818637.5502300008,493207.3962599996,1092515.709999999,1092912.9599999993,625596.8648999992,813362.7427999999,1095443.4599999993,1096401.770000001,1096689.5400000005,1101287.7999999993,564473.2545799993,335078.6086135999,907704.6080000009,1088645.52,1064208.6600000001,1029072.2899999992,1009015.9300000004,991810.38,806545.3564500002,897980.7110000007,746904.2541000005,734681.1898999998,938233.4339999992,530466.1938900002,0.0,276265.8848128996,596083.2002999998,999741.2500000003,1023631.4200000006,1030203.69,1046664.4,1040499.3500000006,1044759.8300000003,1024338.8099999984,1016873.5600000009,1011880.9200000012,755574.9629999992,1028873.14,844462.4349999996,1008658.2300000004,999404.3400000002,1013525.0200000003,1023606.7400000014,850601.6019999991,950174.2950000003,961280.639999999,1014814.9399999998,1031565.4799999997,1024133.5999999996,985065.7699999992,989197.1699999992,706535.5130999994,983986.851000001,1011058.7699999994,437657.22939999955,678770.2336878028,443059.02425109944,0.0,0.0,654814.7036999995,1064357.4300000002,292690.7593509994,0.0,0.0,0.0,0.0,0.0,0.0,1.2330750000000206,43.73315279999999,0.0,0.0,0.0,0.0,0.0,0.0,0.0,0.0,0.0,0.0,6.576403499999995,0.0,23930.653141300005,975785.7570000002,1151754.3800000004,1133607.230000002,1119789.6199999999,912786.543106,954048.488,1091293.0700000008
2017-11-01,1085116.5700000003,657711.4448699983,951765.7009999993,1085518.92,1066452.6100000006,1073613.3500000003,794250.0712706004,30882.660253800015,979985.4950000002,1113780.600000001,495597.3546999997,1089253.3399999985,1115171.2400000007,1106640.1800000002,1107808.0400000007,1108248.6499999992,1099604.9399999988,748312.968999999,92745.95600000006,909278.8010000002,1128612.6399999985,930065.5512000002,981399.2069999988,1119685.1099999999,305773.40149160055,419536.5921559993,893340.2369999995,693270.0277000004,901078.0150000007,831202.840200001,396542.18358769943,548684.8113979012,219281.44178969998,538489.4029391996,435449.0462349,168641.61164659992,894465.2850000006,440781.8265699992,557093.0547999998,954525.8139999988,33423.453519999945,0.0,21.208945699999973,0.0,0.0,0.0,0.0,578069.2810600003,955544.0060000009,690641.9304900006,667732.4687900004,570123.2559000007,590071.3894799992,801983.5560000008,788529.3819999996,691160.2207299995,682022.7776800004,506593.3199499997,810000.6180000015,599072.8382549991,763197.283999999,877431.8529999994,906118.8619999998,911995.2260000004,892424.1019999988,682612.2380299994,911996.3430000002,59920.54291109994,0.0,0.0,0.0,0.0,0.0,0.0,6.165350100000007,0.0,0.0,0.0,0.0,0.0,5.836546600000007,1.2330969000000032,0.0,7.316279699999998,6.658634900000003,1.6999999991135217e-05,0.0,0.0,479780.1303516001,522540.5331127001,306092.77625980054,0.0,320289.73793999996,549209.3023799993,704186.4374400995,777502.714099999
2017-11-03,0.0,1.8085228000000042,0.0,0.0,0.0,0.0,0.08219290000001478,0.0,0.0,0.0,0.0,0.0,0.0,0.0,0.0,0.0,0.0,0.0,3.7300000000017874e-05,0.0,0.0,0.0,0.0,8.467104799999996,1.6440821000000079,0.0,5.507753199999985,268823.7905375,1006535.7672899987,593720.2154999999,802997.0828999999,1027676.9400000009,1001337.0599999997,1048333.9900000003,1055741.3600000008,1045683.9400000005,1059332.7499999995,692666.390364201,0.0,16.6876455,53015.8144548,780697.8270928016,326243.70644980023,731393.6745000008,519396.5645000001,961758.2900000003,947469.4589999998,937749.3729999998,916487.2179999994,916020.6620000005,903915.8039999994,903973.5549999989,895998.13,907236.5230000007,803667.8881999996,598823.3391000001,936147.4230000029,931690.338000001,932583.2849999984,924750.0330000013,922087.1689999999,939988.4369999993,657532.7771000002,963433.5689999996,623656.4957000013,659180.6383900001,880807.3540000004,284730.46326789935,0.0,0.0,28.442980699999996,0.0,0.0,0.0,0.0,0.0,0.0,0.0,7.069661800000007,0.0,0.0,7.316240899999985,0.0,40.60933369999998,0.0,15.454548799999992,17.263088099999994,0.0,0.0,758185.9369898,27055.188619,977870.194,781192.5733,763253.8546999986,1036261.2900000002,996379.9599999997
2017-11-05,0.0,0.0,19.975823399999978,0.0,0.0,0.0,0.0,0.0,0.0,5.425533600000013,11.015474599999989,0.0,0.0,0.0,0.0,16.769836899999987,0.0,0.9042614000000029,42.50006049999999,9.371394800000008,0.0,24.250534699999992,0.0,0.0,0.0,15.454561500000011,0.0,9.864603299999981,0.0,0.0,0.0,0.0,19.318217,0.0,0.0,25.565800999999986,5.754352900000001,0.0,13.728241999999982,3.206021599999993,0.0,0.0,19.15379100000003,0.0,22.85302360000001,0.0,1.1508709,22.19539340000005,8.138310100000002,4.685687400000014,0.41104550000000284,0.0,46.117045599999955,0.0,20.633503599999962,21.619949899999988,0.0,0.0,1.2330529000000008,0.0,0.0,0.0,0.0,0.0,0.0,0.0,0.0,0.0,5.014524599999997,0.0,27.785279099999975,0.0,14.385915999999996,8.878187100000005,0.0,0.0,0.0,18.98938439999997,19.89366690000003,8.302734999999995,0.0,14.468080500000003,14.221486199999985,0.0,0.0,9.864632699999987,2.383943099999998,0.0,2.9593984999999945,9.124763700000008,0.0,0.0,14.961355299999989,21.94879890000004,8.0561096,19.31820970000001
2017-11-07,1067997.5099999993,1070875.1999999997,1071789.7400000007,263127.93196000066,982582.3519999997,832579.8419999991,1003673.7700000004,666576.2660999995,988196.4920000007,971003.4099999993,476692.506,576271.8490000005,974093.6299999999,965473.6849999999,955743.3489999993,947116.9470000005,956836.2689999999,930974.0039999997,938313.0559999999,940386.3809999989,914228.3240000005,169454.41520000008,655137.1478,969859.1310000006,936513.7419999997,911964.0459999985,931818.0330000008,923133.9129999998,890151.2790000006,881252.8340000006,896449.854000001,575135.4608000005,911363.9319999982,922397.383999999,919789.1260000007,939102.5020000006,951979.5300000012,950293.4200000005,960571.6599999998,968233.1100000008,966476.0800000001,977384.7199999997,991812.11,985497.7700000004,987407.5300000004,991302.0799999998,974476.7029999996,126021.61055320001,704104.9472113013,21181.46531000003,923654.7720000003,1075542.6900000002,217469.5519000002,411422.93119999976,1050177.7800000005,782657.1090000002,1023045.2999999998,1085428.7800000003,1079710.9700000004,1066756.159999999,1039207.3000000006,1022903.2200000006,1029082.1799999996,1027813.4599999997,1041067.0500000011,1045504.7700000005,1060537.419999998,72796.29425930015,0.0,3.863652399999999,0.0,0.0,24.743738600000007,0.0,5.178928800000003,15.783434499999979,0.0,6.000980299999997,0.0,0.0,2.548376799999995,0.0,0.0,6.658649399999998,0.0,0.0,91408.15685379998,486429.2110000004,738353.6481779998,1172760.5700000003,1138497.8499999996,1146414.1299999987,1128257.9099999997,1104403.1699999995,1083652.6799999992,1067124.34
2017-11-10,1045655.6900000006,1038471.1499999994,1049083.1100000003,1050202.7799999982,997319.4899999991,970677.2799999997,995930.3000000003,988226.6499999999,993909.5200000012,864776.6350000001,950101.780000001,1004909.8099999994,996332.5499999999,1005422.7599999993,1002997.9400000001,987287.4199999996,969102.1799999997,965287.7799999997,509130.76799999946,731384.4810000003,744941.0027999997,620429.3981,602747.5849999991,511351.74966599996,936462.8659999991,987310.8290000012,799615.9251000009,985345.8129999997,935603.0459999996,947727.9749999987,947010.2239999999,935838.4040000016,381866.69825769943,716197.161,661714.3463000001,989866.3940000006,1004726.5,657673.9550000008,973533.7350000002,1036947.1000000008,1021295.7799999992,964080.6214099982,819182.2521099991,1041088.6599999989,1035381.1099999987,787193.1909999991,969340.809,979755.9130000008,980923.6600000008,988812.3999999992,964986.4789999999,594293.4288999995,810283.9469000007,299160.41650000017,992520.9469999993,991001.5000000001,992366.8200000002,1005698.9100000006,997337.31,999791.2100000005,1005141.1099999994,916833.2726200003,129924.55264000002,959795.7179999999,1006729.0900000005,843029.976000001,1072647.283,22283.509325299965,0.0,0.0,0.0,0.0,0.0,0.0,0.0,10.851052899999981,12.412976700000005,0.0,0.0,0.0,0.0,0.0,0.0,27.127671999999993,2.0551091000000015,0.0,131987.9798976999,1046623.6010000012,1107100.770000001,1083673.7099999997,1074776.1299999987,1090336.9600000002,1068069.27,1052615.2799999986,1052802.9899999995,745042.107999999
2017-11-12,0.0,0.0,0.0,8.138262800000023,0.0,0.0,0.0,0.0,0.0,0.0,0.0,0.0,0.0,0.0,10.686628899999992,0.0,0.0,0.0,20.88009680000008,0.0,0.0,0.0,0.0,0.0,0.0,10.604451800000005,0.0,0.0,0.0,0.0,0.0,0.0,0.0,0.0,21.37332740000002,0.0,0.0,0.0,0.0,0.0,0.0,0.0,12.330785600000013,12.412953900000003,0.0,0.0,0.0,0.0,0.0,0.0,0.0,0.0,0.0,0.0,0.0,6.576455899999993,0.0,0.0,0.0,0.0,20.633492599999997,0.0,9.453595499999997,0.0,0.0,4.767902800000005,0.0,0.0,0.0,0.0,0.0,0.0,0.0,0.0,0.0,0.0,0.0,0.0,0.0,0.0,0.0,0.0,0.0,13.89269540000001,10.522270200000003,1.8085206000000054,23.83946129999999,0.0,3.945842200000017,0.0,0.0,0.0,5.5899236000000165,4.439100900000014,0.0,9.7824213
2017-12-03,0.0,0.0,8.713724299999999,0.0,25.812381299999988,8.549305200000004,0.0,0.0,5.589921300000016,0.0,0.0,0.0,0.0,0.0,0.0,0.0,0.0,0.0,0.0,0.0,12.57738479999999,0.0,0.0,0.0,0.0,0.0,0.0,13.481648100000003,5.836564699999974,12.166346299999992,0.0,0.0,0.0,0.0,3.3704355000000006,0.0,0.0,0.0,0.0,0.0,0.0,0.0,1.7263281000000033,0.0,11770.210823499994,0.0,0.0,12962.18845850001,26210.120784699982,0.0,0.0,0.0,0.0,0.0,0.0,0.0,0.0,0.0,0.0,23.346258100000014,0.0,0.0,0.0,0.0,0.0,4.767900299999991,0.0,0.0,20.88009930000004,0.0,31.731185999999983,0.0821956000000115,0.0,4.767918200000005,0.0,0.0,0.0,0.0,0.0,0.0,0.0,0.0,0.0,0.6576153999999996,6.165382800000001,0.0,0.0,0.0,0.0,0.49324069999999043,0.0,0.0,0.0,3.9458349999999958,0.0,25.648015799999992
2017-12-12,1119311.4400000004,1111387.9099999997,558557.0719000001,741621.6359999994,1050792.4699999997,1021269.5200000003,1023304.4299999998,1029267.6099999993,1304816.330000001,1460707.6399999997,693998.6396000005,1089031.5440000007,647992.4037,1207446.7439999997,723106.3619000005,154558.16116999995,1030237.0849999995,936834.1549999986,1072268.8100000017,1226472.5400000003,1060733.279999999,1099607.4700000007,1026379.7700000012,1028510.5000000021,1362639.5200000005,1627097.3299999968,1531653.5999999966,1054039.7399999995,1683680.8239999956,1060409.2699999996,994622.9169000003,112061.37610000005,1019022.8450000002,1077818.5012000005,786882.5916999998,1123531.8799999978,799771.1327999985,1108651.5699999991,1103620.050000001,1088027.3700000003,1120768.77,306969.1409619987,1003353.5700000003,1113777.9900000002,1140615.7800000026,1087523.8499999999,928326.6448999993,915079.2589999995,414583.97020999965,78096.11261930059,0.0,0.0,0.0,335188.0452052001,988167.7299999996,1009796.9999999995,1001236.0800000002,968460.4599999988,978964.0600000008,970982.6499999997,963868.7700000007,959130.1400000008,847908.9819999998,967203.5200000004,979562.1099999999,992723.0399999997,1001703.2200000006,289553.47484100057,0.24661770000000577,0.0,0.24663350000000495,0.0,0.0,0.0,32.88208300000002,29.26502989999997,1.6441118000000103,14.057106300000001,0.0,35.51261550000003,0.0,0.0,8.71372980000001,0.0,2.7127604000000107,0.0,23.675102000000006,9.124761599999992,77641.67522049998,458049.28799999965,438469.74800000014,280643.40792999987,365767.12740000023,0.0,167478.97610000003,103158.63796999995
2017-12-13,304032.48290000035,346630.83670000045,152965.91436600024,246479.00982429963,0.0,101930.10112000002,542859.5749561997,1015419.5699999991,1029202.040000002,1033473.009999999,1043314.7800000001,1035257.3399999996,1023170.5000000014,1140013.290000001,1661098.439999998,322136.5117130005,630501.1959999991,1075105.5995000016,672071.2471999987,718550.2991000019,269730.06567510037,638687.2475000003,642087.9320000007,1321633.5470000003,1455915.0099999981,1060061.7100000011,1280851.7500000019,1567644.808319999,1108185.4450000015,1323038.5300000028,833261.885000001,3045248.890000006,1176104.6700000006,217821.56517000025,1035090.5209999983,1783755.7000000025,1566027.2125000004,903383.0656,1098653.5299999989,471442.62619999953,1119229.4569999974,2095519.6699999992,1382663.467000003,1247120.29,1406833.0999999992,1188648.2399999998,47297.69766459984,0.0,0.0,66.99716060000007,44.22639289999999,582049.1546386008,1060896.08,1166017.3300000003,1127125.42,764368.4169999996,1249646.0999999994,875688.5558500021,977738.341,1053510.0065900006,1207189.980000001,897981.3979000011,0.0,157172.68569999977,0.0,0.0,0.0,83.27377520000003,23.839480999999992,54.502039399999965,0.0,10.357860400000005,0.0,0.0,0.0,0.0,0.0,0.0,0.0,17.42748429999999,0.0,37.07446750000011,0.0,8.38487749999998,0.8220028999999973,0.0,0.0,0.0,193680.2217154,935802.7765490002,1214103.4700000002,859527.8158999992,777381.1583899998,785380.0580200002,950147.4800000004,916662.5160000006
2017-12-22,1024323.3886000001,1105046.3610000003,1179998.0900000008,1155345.5499999996,1176619.9400000009,1214774.1099999987,1200437.5499999998,1192009.3499999999,1187083.9700000002,1166844.09,1173991.1999999986,515899.2595000002,824171.9299999994,1170915.2199999997,1220196.49,1219958.809999999,1204162.5899999999,1199073.9700000011,1216553.5399999996,1230807.4300000002,1036715.8720999986,1030519.186,1154248.0680000018,382708.5310000004,364597.6790000001,338535.1059000001,153318.56745999996,452657.777,381057.20929999975,1133416.9590000007,1268162.0500000014,1264597.0800000005,1235230.0800000003,1192927.9999999995,1195176.2099999983,1168780.6100000003,1170667.2899999996,1167231.7099999993,1151819.1099999994,1134713.2599999998,1141857.9700000007,1140010.37,1162766.439999999,1150863.7999999998,1579984.5299999993,1228594.1099999982,1159513.4399999995,1138955.6899999995,1066654.3865000005,583802.1998799993,1124049.0599999994,1324198.2999999977,1132317.9799999995,282912.5529499988,0.0,0.0,449899.5452978003,761010.4188000001,1141509.8339999982,1270693.9600000002,1219646.1700000009,891123.273,994055.8719999996,987018.7363550009,447799.8688862999,0.0,358070.4953233001,6428.689064099995,12.00198129999999,0.0,0.0,0.0,0.0,0.0,0.0,0.0,0.0,3.863641899999965,0.0,0.0,0.4932248000000041,0.0,0.0,0.0,5.096716899999998,0.0,0.0,0.0,64175.24142950001,1109368.2000000007,1263013.0200000023,1242628.4700000018,1308467.659999999,1275995.9299999997,1328814.0899999999,1617015.820000001
2017-12-23,1205531.6000000008,1180425.9600000014,1221933.8099999994,1191739.249999999,1293038.2,1182996.2700000014,1111928.040000002,969683.4730000006,1166546.7189999993,1475866.3100000015,1421676.899999998,1234476.905000001,139437.0866784991,61614.88947349998,317277.20158269996,1171676.25,1109258.1600000001,956640.9595999988,622553.2979999998,1257876.6800000002,1197808.5399999993,1197935.0899999999,1215812.0500000007,819019.1581,1101073.961,1252099.2699999993,1101650.9000000008,225960.52638279842,80935.46954220002,1124648.5550000004,1196439.9099999995,1152237.0799999998,1150546.2100000016,1153272.669999999,1191009.43,1210561.6199999985,1226188.409999998,1207223.97,1204011.5300000014,1175385.3499999992,1021892.5268999994,915105.4345999996,1157627.3100000012,1192107.5499999996,1139117.959999999,885426.2675000009,235817.6598129,461676.09013999987,1136368.4900000012,1152362.250000001,1132172.2000000007,1126483.3699999999,1147584.8199999998,1109800.5000000002,1097770.7600000007,1053283.600000001,1050605.020000001,1044877.7599999994,1064035.819999999,1073833.4199999995,1077469.2299999997,1057972.8699999999,1059560.8299999994,1048734.5999999992,1038304.9399999994,1014737.6000000009,1019807.9600000002,1003115.2500000007,996862.9100000011,1015528.8000000025,1028003.71,1015389.9300000003,512123.9578900001,905926.0840000003,1097695.3300000003,1154998.27,1159001.3899999987,1141963.3400000008,1142092.56,1038131.427,894806.576299999,1214539.0899999996,1211222.2100000004,1290629.6500000025,1224880.0400000017,1207470.9300000002,1195337.9799999988,1189532.38,1185589.22,1171610.6299999994,1189397.8800000006,1202829.0699999994,1191507.8099999996,615190.77415,761414.8237999999,1201511.6000000003
2017-12-24,1188938.389999999,908486.7750000003,1156717.2099999997,1206823.630000001,1208962.8899999992,964530.2659999994,1199003.870000001,1187666.860000001,1194816.6099999999,1194027.56,740229.3697399992,842078.802000001,1119912.8099999994,1102954.249999998,666414.5258999005,0.0,0.0,0.0,4.192482899999981,0.0,27.37429559999998,0.0,0.0,0.7398080000000036,0.0,0.0,2.466139000000007,0.0,9.946849700000008,0.0,0.0,0.0,0.0,0.0,0.0,0.0,0.0,0.0,0.0,0.0,0.0,8.549342700000011,0.0,15.701174599999987,0.0,0.0,0.0,6.905249099999995,1.1508653000000104,0.0,0.0,0.0,0.0,0.0,0.0,0.0,0.0,9.28917760000001,0.0,2.630501800000017,0.0,0.0,0.0,0.0,0.0,0.0,0.0,0.0,0.0,0.0,0.0,11.590906699999985,5.507761500000004,2.466142300000007,26.223457599999975,0.0,11.755321599999998,0.0,0.0,0.0,2.3017342999999904,0.0,0.0,0.0,1.8084858000000175,0.0,0.0,0.0,0.0,6.0831694000000045,0.0,0.0,0.0,0.0,3.781414900000014,0.0
2017-12-25,0.0,0.0,0.0,0.0,0.24664119999999784,0.0,0.0,0.0,0.0,0.0,0.0,0.0,11.67315980000001,0.0,0.0,0.0,0.0,1.6441379000000076,0.0,0.0,0.0,0.0,21.866564899999993,2.8771451999999935,0.0,20.386896399999994,0.0,0.0,0.0,0.0,0.0,0.0,0.0,0.0,0.0,0.0,0.0,0.0,0.0,0.0,0.0,0.0,0.0,0.0,0.0,0.0,0.0,0.0,2.959350300000002,0.0,0.0,6.740778600000012,0.0,0.0,8.795945799999995,32.96424060000002,0.0,0.0,0.0,2.3017345000000073,0.0,0.0,0.0,0.0,0.0,0.0,0.0,0.0,0.0,0.0,0.0,0.0,0.0,0.0,0.0,0.0,0.0,0.0,0.0,0.0,10.357898099999991,6.658623300000004,0.0,0.0,0.0,0.0,0.0,6.576384600000013,208619.20011580002,897314.8599999995,1210735.6100000008,1194798.5000000019,1158499.5199999996,1139154.989999999,1105078.7000000002,1123782.169999999
2017-12-26,1091037.499999998,1132622.9000000008,1147930.6800000002,1124362.5000000002,1123172.6299999997,1115864.3400000015,1117985.190000001,1106085.490000001,1084912.6499999997,1085317.0699999994,1056301.189999999,747475.9422899998,1049556.610000002,1059575.7499999995,1047791.270000001,1055295.6199999999,574321.7200000006,1168216.6900000006,1245551.3799999992,1095675.3343,1123004.3119999995,1216824.46,1051551.736899999,611234.2762000005,1222649.6900000002,1221507.929999999,1205194.5699999994,173570.27965349943,0.0,0.0,1066.0362255999992,1010515.3230520989,1280676.1700000004,1211304.7883000004,373671.21269999986,1245171.5000000002,1273432.660000001,805879.839599999,1237427.870000003,1142888.2576,751789.5687999999,1379986.8400000008,827855.7128000004,950083.2569999987,1456225.2573999988,1082628.573620003,1443074.6599999997,1036187.5515000003,1497027.4779999994,1249614.579999999,822865.1191000007,338151.8791999984,0.0,108.42854830000019,81.13652129999996,141.39282630000025,57.70802610000007,63515.46836339999,1222991.285999999,990388.3479999991,1313073.3799999985,1140148.3559999997,1235998.242999999,1218935.4799999997,912636.6950000005,1178935.8700000006,884555.0250959994,0.0,0.0,0.0,0.0,0.0,0.0,0.0,0.0,0.0,0.0,0.0,8.138309000000001,0.0,0.0,0.0,0.0,0.0,9.289178199999995,0.0,1.0686423999999923,0.0,9397.936605899999,79907.17796,1229204.9459999984,1273719.6099999985,1259585.2199999995,1248673.8900000006,1044441.9700000003,1232618.6700000013
2017-12-29,890384.3689899996,1258468.1800000006,1255879.209999998,1234734.0600000005,1238769.4399999995,1242329.87,1225522.1900000006,1041561.8161000004,560731.2680300002,1235396.1899999995,1278911.3200000005,1277128.7799999996,1272287.0599999987,1262724.6300000013,1258841.4100000001,696033.8746999993,1244823.0200000005,1256492.6100000015,705885.5477199989,1167957.8099999998,1289810.7100000014,1264287.1100000003,1270804.5099999986,1254670.4499999993,1231922.0499999996,1225409.8800000004,1073994.9449999998,1112312.9629999986,1263639.960000001,1239065.4500000002,1253964.9800000002,1266751.9999999988,1260453.0500000017,1236278.660000001,1282126.859999999,1279281.079999998,1250427.3200000003,593830.7959999988,149693.90297999996,315216.3042999995,840258.8395000002,1223731.4299999997,1222336.5200000016,1224711.6000000003,922980.4008900016,432007.7770899995,928065.9331100002,1139859.4800000016,1129651.6200000006,785549.2948099999,1173212.360000001,1127800.0099999993,1104524.1399999987,876192.880799999,1036709.5059999998,1110797.08,1135641.8900000001,1202080.82,1129762.5500000003,1175149.3700000013,1082870.69,1250085.8400000017,1161845.59,1100132.960000001,232883.23914899954,776179.3455841995,1145970.086000002,0.0,0.0,0.0,0.0,0.0,0.0,0.0,0.0,0.0,14.7147163,0.0,0.0,0.0,3.452616299999994,1.5618696000000027,6.412060099999978,0.0,0.0,0.0,0.0,0.0,579268.5087911983,1360176.2289999994,239191.60749999958,909789.5017000011,1134936.6046199996,493767.54821179993,1507254.3399999985,1166121.9134099984
2017-12-30,840171.3096000003,1160658.01,1153443.320000001,1287173.1200000003,1174031.0999999994,1172783.0713000018,1256141.3100000003,1240732.8100000008,1135841.429999999,1113767.9399999997,371886.1623599997,566691.5457499997,1126633.1299999997,826108.8778500005,1100304.2299999997,1066337.9200000002,1049692.7800000024,1055971.3000000005,1069981.5900000008,1059577.4500000007,1133313.1599999988,1144276.1399999992,1131262.3,1121914.3099999996,1127114.9099999992,1118507.7099999997,985962.4670200008,734358.8723399998,487782.5899221999,960438.8684899997,1190313.6199999996,1185197.389999999,1189152.2300000004,1147041.9487900003,0.0,123384.38866010016,1024618.7316099998,1201424.3299999994,1200666.36,1198765.21,1171034.0200000007,1161668.7400000014,1149168.3100000003,1162785.9099999988,1168404.3099999987,1166809.7299999993,1148234.8200000008,1139204.0900000003,1154313.780000002,1141167.729999999,1132819.179999999,1148525.790000001,1123568.9799999997,1108785.3299999996,1095476.72,1377040.2799999993,1257946.333999999,938832.0019999993,866045.8234000008,1019584.2720000001,852867.8824699996,1140869.3299999987,1100106.0400000007,1327708.5400000024,1405006.9600000007,1124434.5500000007,1123950.329999999,1127442.1400000001,1148069.7999999998,1125274.0600000008,1362530.5500000021,1321796.9899999993,1138754.0599999996,819497.1096999991,1767860.1299999997,1487789.7199999993,536575.4489099984,627999.3837730001,1034023.744000001,1399148.750000001,1255650.0000000002,1255619.9400000002,1253191.6200000003,1305159.640000001,1417693.8099999991,1261120.0300000012,1698963.5399999993,1312638.5300000007,1230084.98,1232777.189999998,1208396.3799999978,1307367.8599999987,1256561.5699999991,1239474.2399999998,1297237.3699999994,1495040.380000002
2017-12-31,1430161.3399999999,1197500.2400000007,1777136.3799999957,870829.6087499985,246598.63843999998,1328569.1999999997,1308651.1300000022,854119.5972819998,867728.7481799998,1183080.5899999999,819221.3051099997,1140850.0300000003,1131580.7699999984,500266.72500519996,0.0,0.0,0.0,0.0,5.672161499999998,1.3152833999999918,0.0,0.0,0.0,10.768892700000006,0.0,10.275621300000013,2.9593411000000014,7.23403469999997,0.0,0.0,0.9042352000000028,0.6576659000000046,0.0,0.0,0.0,0.0,0.0,0.0,0.0,0.0,0.0,0.0,11.673148200000007,0.0,0.6576258000000015,0.0,0.0,0.0,0.0,1.9999999907038823e-06,35.759263199999985,0.0,0.0,0.0,12.906209299999986,0.0,0.0,0.0,0.0,0.0,0.0,0.0,0.0,0.0,0.0,0.0,0.0,2.5483478999999862,0.0,0.0,11.262103500000002,8.384952700000001,2.1373588999999904,15.536802399999996,0.0,0.0,22.606385599999992,0.0,4.19245100000001,0.0,6.329775200000007,0.0,7.809485199999999,0.0,0.0,0.0,0.0,0.0,0.0,0.0,0.0,0.0,8.2205268,0.0,21.208896700000007,0.0
2018-01-01,0.0,0.0,19.893643100000016,16.523208199999996,0.0,0.0,11.6731171,0.0,0.0,14.632500399999993,0.0,0.0,0.0,0.0,0.0,0.0,11.837555299999991,0.0,0.0,0.0,0.0,0.0,0.0,0.0,0.0,0.0,0.0,0.0,0.0,0.0,18.90721729999999,0.0,0.0,0.0,0.0,0.0,10.768884699999967,0.0,0.0,0.0,0.0,0.0,0.0,0.0,0.0,0.0,0.0,0.0,0.0,0.0,0.0,13.235067999999993,0.0,0.0,0.0,0.0,0.0,0.0,0.0,0.0,8.878171900000007,0.0,0.0,0.8220404999999928,0.0,0.0,0.0,0.0,0.0,5.8365616,0.0,0.0,0.0,0.0,20.222440100000018,0.0,0.0,0.0,0.0,0.0,0.0,0.0,0.0,0.0,0.0,0.0,0.0,3.6170029000000046,1.150889400000004,0.0,0.0,0.0,0.0,0.0,0.0,0.0
2018-01-02,0.0,6.740815700000005,0.0,0.0,0.0,7.316236499999999,0.0,0.0,0.0,0.0,0.0,0.0,7.480678800000002,0.0,3.8636604000000068,0.0,0.0,0.0,0.0,0.0,0.0,15.04352480000001,0.0,0.0,0.0,0.0,0.0,0.0,548880.3678189998,1265500.8099999984,343389.3107299995,4053.7771300000036,0.0,0.0,1062520.2749999992,1156325.9900000007,1170901.6799999997,1133645.0599999994,487736.2081399983,0.0,0.0,96.01560140000014,53.10458180000014,0.0,36317.24109960001,995318.5460000007,755210.5380759011,864758.5852800013,1029070.8299999984,600847.4160298994,914868.1269999996,1087309.5899999996,1168254.3699999996,952894.8784099999,1064013.0466600014,1427643.5099999995,1350114.9499999988,1236977.1400000006,1724507.1499999976,1614303.2700000007,975805.9179999984,1467768.0700000029,1489397.088099998,1278285.7680999981,1613315.5799999991,1504223.8600000003,1778915.6720000012,15010.411630000013,0.0,22.27746829999998,39.21189120000002,0.0,0.0,4.110190199999958,0.0,14.13927420000002,0.0,0.0,0.0,5.343340299999991,18.16737270000003,0.0,0.0,0.0,0.0,0.0,0.0,0.0,232654.86526349973,1370940.06244,2405293.980000002,1777710.7300000002,1160201.2899999989,1220939.8399999982,1884512.4699999967,1194002.4099999985
2018-01-03,1176371.6599999988,1172779.6800000004,1224012.6800000009,1205320.1500000013,1209984.0199999975,1213453.9899999993,1210656.2,1207938.640000001,1209780.5499999993,1273763.2799999986,1185824.0399999989,1233033.4600000011,1224382.5099999995,1231583.7499999993,1234933.0600000017,1237879.0299999989,1239655.059999999,1242134.1199999992,1301937.639999999,1190980.0400000005,1213229.3299999987,1217151.1900000004,1207664.5400000007,1225779.430000001,439004.01138999994,1416913.3960000006,951875.5979999994,1036769.3899999997,1030681.8300000009,1128504.0500000005,271476.77805,840895.6270899994,1103481.5300000003,563956.1424499998,1083106.4230000013,299072.351609999,13464.37296490002,488603.30024999974,1168294.5300000005,1191797.0800000005,936227.1351000001,1211074.0299999996,1186601.5300000007,928689.0108000002,1143866.32,1242907.280000002,545260.8216458025,213639.5442420996,1091730.683,1172484.6799999995,1162773.8300000008,1159553.1300000008,1163465.6099999992,1154107.2199999997,1184807.3599999992,1153793.9499999983,1159833.6199999996,1167037.9400000013,1162023.569999998,1170959.9000000001,1159709.4599999986,1157324.14,1155749.4100000013,1158875.3899999987,1137383.9800000007,1117530.32,1138291.55,207084.10885489924,0.0,0.0,13.317220599999978,0.0,0.0,0.0,1.8907415999999884,20.386882899999982,0.0,0.0,0.0,0.0,0.0,1.8907359999999944,0.0,0.0,0.0,17.09869079999999,0.0,0.0,532478.0858439002,1195959.1499999992,1149241.1099999996,984266.6732000022,811674.7235200003,1119141.15,1106155.15,1104927.8899999994
2018-01-11,1081672.8900000006,822798.0420899999,586587.0630000005,990203.3929999991,1100458.8099999996,1094772.52,1103955.9899999995,1103478.2899999996,1105298.2999999996,1283543.7500000014,1183207.4200000009,1139668.6699999992,1386722.150000003,1213388.8999999992,1175210.08,1166691.8800000013,1508983.630000002,1920789.4299999988,1136110.669999999,1143027.2800000007,1131352.0899999994,1120474.3500000008,1154909.5900000003,1144454.1199999992,1172389.7899999984,924953.4161400006,998014.2399999995,705500.467,733811.5689999994,1006464.4839999999,1162669.5899999992,1147483.7599999998,1182083.1300000008,1329457.2299999997,1161090.7400000007,418664.80600000016,417798.52400000015,472527.10099999973,348780.6811623999,406573.3329548996,1040640.3339999994,1113304.5699999998,1127307.3,460945.644409998,0.0,23.592866799999996,43.73311199999998,14938.231314999995,995093.7963100002,379486.6427499999,984648.5319999995,1032139.09,1038441.8500000004,1188683.329,1147356.8170000007,984509.68,1001584.0699999995,1216867.64,1025265.3999999994,767075.9321300008,418360.3359378995,1168522.7459999996,1124351.3800000001,807335.3990000004,1132504.2399999995,1111101.6800000006,1303023.169999998,138832.95555479988,0.0,1.5619026000000034,3.3704377000000068,0.0,0.0,0.0,0.0,0.0,8.302713199999982,0.0,0.0,0.0,0.0,0.0,5.672153200000002,0.0,11.673088100000001,7.809459699999996,0.0,6.576416100000007,137990.8428925,1181503.9300000009,1204840.5299999993,1185523.0999999999,1168071.7399999984,1151935.0699999991,1120021.5199999996,1111046.8100000015
2018-01-12,1119521.4300000006,1113344.1499999997,1112390.570000001,1100022.849999999,1122075.8000000003,1139037.09,1122393.1800000002,1085781.3599999992,1089518.3699999994,1198481.1800000006,1083250.4899999995,1072006.1600000015,1061281.47,1048378.3899999998,1057216.2799999998,1072517.7300000002,854830.5444500002,1029836.9300000003,1019773.7500000002,1022959.0200000004,1020345.8399999995,1041320.7900000006,1070098.0499999996,1076149.6399999997,1050149.9399999995,1018283.7000000009,1012444.8999999993,1050428.5400000005,1059726.779999999,1006764.3600000006,487369.3057243,629107.7925179999,1163103.1199999996,1176916.6100000006,1180715.989999997,1181935.0800000008,1232663.110000001,1220790.9699999986,1193883.2850000004,955701.6890000008,893572.7077900007,1101715.1929999997,1218588.7499999998,1206249.7769999988,387067.45616999967,679935.1551399998,1080406.5599999996,915410.0640000002,725176.8658599994,1039577.5300000001,1033155.3000000006,732411.5935400001,977177.4000000006,971721.1000000016,964360.3299999986,965005.7999999993,968132.5700000002,980197.5740000004,984848.1699999992,981319.1699999998,966510.6240000009,970492.1099999999,997386.46,992842.8399999987,486071.34135299985,800040.5922800001,791348.1558285005,5.096767300000035,51.62478319999994,0.0,0.0,0.0,0.0,0.0,0.0,0.0,0.0,0.0,5.754373400000012,11.09769050000002,0.0,0.0,0.0,0.0,0.0,0.0,0.0,2.9593782000000024,221320.03221080004,1132106.2009999997,1113117.7799999998,766513.96618,94263.06892830002,644674.3704470039,0.0,47.51456940000009
2018-01-13,365891.3185166998,427958.2365929001,1104883.6339999991,1100561.8500000006,1076485.92,227926.05314189976,985803.5650000012,1112194.9100000001,1320343.8299999984,1462480.6100000008,1440625.3400000008,1277912.8599999994,1293989.4099999971,1358673.5299999996,1358423.0899999999,1404395.8599999994,1339959.5000000028,1218133.4099999988,1186872.5099999993,1193125.3299999996,1214561.8299999996,944598.9433522004,868343.2929999985,1384767.1800000002,1266479.5799999996,1249544.8300000012,1278440.6399999978,686558.6619999997,1089883.9000000001,1168778.0600000005,1119995.8099999984,1103206.5899999994,1093951.3800000024,1118036.6499999997,1143031.0599999996,1108618.7100000002,1117105.1699999992,1248661.700000001,1416413.7200000002,1191527.4000000006,1337993.6099999975,1126068.9499999979,358343.84751799895,811735.1195199983,1141481.0600000012,256318.80057669748,0.0,369608.21825009986,779241.9037800006,946834.8834300002,1133814.2699999993,1293895.7399999984,1132106.0099999993,1095563.0999999999,1103472.8499999996,1053141.2600000005,1041946.0700000005,1049806.3199999994,1069363.1300000001,1069942.8400000003,1068031.8099999998,1015341.2699999998,1315714.2400000007,1033896.9200000002,845644.7099200009,1050829.3100000008,1100127.3600000006,1252734.2199999993,1378946.6700000006,1275953.9200000009,1068198.6999999983,1099911.6099999996,1097463.039999999,1111208.4999999993,1100877.1099999999,1084819.3900000018,1098897.3299999991,1094038.3700000017,899267.1100000003,1113353.8199999982,1117686.060000002,1113828.8800000006,1112673.7542000017,847302.1086400003,1140747.610000001,1142609.8599999994,1141133.1999999997,1129738.2300000011,1165918.6700000004,1175196.08,1166346.2000000014,1168482.5899999996,1167400.5399999986,1152054.3300000003,1138685.3,1157744.4800000002
2018-01-14,941923.7526000002,1076010.2359999993,1183970.84,1178733.0799999982,869122.1173199997,1052193.5480000004,1191187.2800000012,1183898.2399999995,1189281.800000001,251223.75874529962,595398.5457841003,1022223.3400000012,1010275.8499999988,1013304.8699999992,755470.0684299996,980252.4340000004,965488.2209999999,801919.2480000012,228130.32689209888,15.865596100000001,13.728286400000004,0.0,0.0,0.0,0.0,0.0,0.0,0.0,0.0,0.0,0.0,0.0,0.0,19.400395900000035,0.0,0.0,0.0,3.617059200000006,0.0,0.0,0.0,0.0,0.0,0.0,0.0,0.0,0.0,16.44102769999999,0.0,0.0,0.0,0.0,0.0,0.0,0.0,0.0,0.0,0.0,0.0,0.0,0.0,0.0,0.0,0.0,0.0,0.0,0.0,4.1924873,9.206942700000013,0.0,0.0,0.0,0.0,9.371365100000004,0.0,0.0,8.960363599999999,0.0,0.0,5.261086899999989,0.0,0.0,0.0,0.0,0.0,0.0,0.0,0.0,2.3017063999999934,0.0,4.4390592,0.0,18.5783467,0.0,24.74377729999997,0.0
2018-01-15,0.0,29.593903100000013,0.0,0.0,0.0,0.0,0.0,0.0,8.878145299999995,0.0,4.521298799999997,0.0,0.0,0.0,0.0,0.0,0.0,0.0,0.0,0.0,0.0,0.0,0.0,0.0,7.234054400000009,0.32882949999999556,0.0,0.0,0.0,0.0,0.0,1045968.1618000002,348247.65172009816,16701.9471552,995070.7090000018,960937.8479999991,1010639.73,988720.1299999988,995712.0599999998,981334.6699999992,970884.6899999994,940446.7830000004,973323.0899999995,992578.2900000003,998485.0400000002,1008408.4300000004,652132.9505000014,528057.7329999997,895599.2980000018,1125492.1099999985,1107385.0499999989,809622.8810000013,1085145.8499999999,1066880.8800000004,919415.2770000008,1076823.3199999991,1088159.7200000002,1081573.0400000005,1115984.639999999,1137459.6400000001,875048.4320000003,803204.97179,1100830.4200000013,1097349.930000001,949277.8959500007,1051045.1818000008,840228.5482900004,100083.54394070002,0.0,10.440042100000017,19.482627999999995,0.0,0.0,9.535788799999994,0.0,0.0,0.0,0.0,0.0,25.07256249999998,0.0,0.0,0.0,0.0,8.878167900000005,11.097673899999975,4.7679139,0.0,0.0,1033637.9517199995,1015596.2988600002,887269.3100000008,1178881.6699999992,1236294.9999999988,1230263.4400000016,1327774.0299999982
2018-01-16,1225371.7099999993,1211838.9300000002,1198983.810000001,1206449.7199999997,1231095.3799999992,1222377.3799999987,1184804.08,1153924.250000001,1147870.36,1148354.61,1157955.7,1170667.8100000008,1179999.0100000007,1168511.6800000006,1169490.8099999998,1166628.0099999998,1156754.1000000006,1162564.1099999982,948708.3466400004,543673.8311180999,918160.0669999997,1076191.7000000002,1056588.0499999989,1061407.3799999997,1094424.4600000011,1060116.839999999,987888.9942999994,813047.7537599996,531702.0774460008,282825.3659963998,977412.7089999997,1061457.8100000003,1059696.5600000003,1036440.1000000006,1038360.7200000004,1001468.8999999994,1022600.2799999994,1020325.6099999998,771754.2462899982,1045910.1500000003,1019970.8599999987,1033698.700000001,1051084.9600000004,1049619.3699999985,1044071.0099999998,1025669.3200000018,1033192.3499999987,1057651.0299999984,1100034.3799999987,1071455.1500000008,1043705.9099999998,1043247.8699999987,1051697.5200000007,1063430.860000001,1099863.7199999995,1059907.46,1076940.6600000001,1073441.6099999999,1049946.6300000008,883663.6220000008,1020547.0699999994,1029347.3300000007,1065082.51,807077.0814400011,1016696.6999999994,1060897.5799999994,1083813.1500000008,230004.94023579956,0.0,0.0,0.0,0.0,0.3288336999999938,0.0,12.084173700000001,0.0,0.9864614999999985,16.68766829999999,0.0,0.0,0.0,0.0,0.0,0.0,0.0,0.0,5.67208610000001,0.0,69579.32671349999,1075473.1289999997,1158161.7900000014,772546.2623000001,583494.1967300001,1057209.3599999994,1165343.3999999985,1169618.0700000022
2018-01-17,1204502.9800000018,1198779.1300000006,1186254.2899999993,1226506.620000001,1223625.85,1192153.5499999993,930320.4356500008,160451.50957999963,811152.2487000005,1219290.7300000004,1198115.1299999992,1191871.6799999983,1175804.9699999983,1164357.5599999996,1155719.240000001,1161426.32,1157127.7500000005,1199037.4800000007,1163814.67,1135517.4100000004,638639.1567700007,841306.4540000003,1137435.58,1237131.229999999,1215399.5599999998,1187331.6900000018,1177530.8299999998,964786.1760000007,1159033.7599999986,1126818.8300000003,1107655.020000001,243346.02112000016,1110872.403000001,1212849.0799999984,1231314.1300000018,1216368.5499999993,1057303.961000001,1237739.2100000023,1268684.6800000002,1240533.029999998,1225508.7100000016,1247178.8299999991,1239251.4600000011,1262209.9000000004,965561.9279999997,832504.059600001,1252759.160000001,986538.217999999,1196418.589999999,911933.0563499993,1043871.7959999992,1166865.3100000017,1159900.4999999984,1177370.6899999992,1155829.3300000024,1183319.67,1197779.2500000002,401957.86377999827,1090780.0850000004,1158036.9399999995,1146047.4200000016,910875.0320000006,1149078.8300000015,848593.4080000011,736520.3971999995,1108154.459999999,1142122.9660000007,118171.9352364,13.563835600000013,0.0,0.0,0.0,0.0,0.0,4.932293099999999,0.0,0.0,0.0,0.0,0.0,0.0,0.0,0.0,14.468121799999993,0.0,0.0,0.0,3.452636600000005,0.0,1060417.9196399993,1169851.1892,545865.7383999998,1055530.751999999,1239704.9299999992,1209966.9299999985,1182191.1899999988
2018-01-18,1177711.280000001,1193818.3399999996,1188588.9299999995,1181259.4299999997,1194861.79,1201500.9200000018,1182541.2600000005,1210076.0099999993,1226894.4700000002,1220369.169999998,1208434.8200000008,1182050.389999999,1162248.2799999984,1132440.2900000003,1132980.05,1153693.7500000002,640878.6041900002,610361.6231249005,956399.739,827253.5331600006,882412.9887999998,1024548.8899999997,1008857.8799999994,969601.797000001,754068.4176800004,767225.3761400002,724499.8272600003,967921.4660000004,954158.1529999989,977998.5400000016,976999.4399999998,983206.9499999995,379312.56622999994,653335.9738129997,1002396.5999999994,1054198.110000002,1076139.9000000008,1076249.9900000002,1071386.7600000007,1068484.0800000005,1117504.64,1157117.9900000002,1139948.260000002,1132749.2700000005,1085272.519999999,1112800.0199999996,1116884.0499999998,1119571.6399999987,1105959.79,1094797.2499999998,1078861.9799999993,1079456.1499999978,1063297.429999998,1058473.7800000014,1053295.0100000002,1081340.1699999992,1089028.9100000001,1105992.18,1072038.2799999998,941538.39313,908559.2061999997,1054507.4800000002,1014699.8400000007,1003054.4000000005,1021902.9199999981,1021184.9199999998,804982.7983534007,0.0,6.658565700000011,11.837526399999991,0.0,0.0,0.0,0.0,0.0,0.0,0.0,0.0,0.0,0.0,0.0,0.0,0.0,0.0,0.0,0.0,0.0,0.0,0.0,218281.86513519986,1121604.4700000007,1176590.5099999995,1175492.2099999995,909424.375000001,1138795.079999999,1176629.4000000001
2018-01-19,1171484.1100000003,1091616.679999999,1019934.2099999987,992180.3600000007,998861.7200000015,807532.5249100004,127736.1726247002,712703.4483888993,962579.2739999996,1022026.5299999997,1080745.88,1108706.709999999,1086847.5100000012,1087524.2699999996,1094779.5199999998,1098623.6900000004,1089392.4799999988,1064622.8200000003,1059243.310000001,1076134.6699999997,1075211.9699999997,1069016.4800000002,1074296.3099999994,1080820.6099999996,1088731.0700000005,1069575.079999999,1064795.9,1060429.589999999,1073232.8200000008,1024461.0700000002,1062253.24,1025272.3800000004,1001893.0099999997,1006227.6100000006,1010929.4599999994,1010144.1600000001,1003624.2800000004,990078.97,991446.5399999995,998082.0200000003,999892.5599999987,1019648.3499999995,1008533.7899999997,1011160.5200000013,1011367.2200000004,1014509.9100000003,1023500.4499999989,1002536.090000001,1004367.0100000004,990692.5199999991,964132.8700000006,965325.9760000015,973938.8100000002,965040.4799999993,385612.4168400005,726175.4679999996,883377.3000000002,930752.3829999993,897958.5700000012,917551.6030000005,894605.2890000005,734989.6611499999,857703.5830000008,693406.9658299997,907331.7370000001,919554.3640000004,704372.6028332,0.32881479999999863,3.123776700000005,0.0,3.3704401000000126,0.0,0.0,5.01451620000001,12.00193769999999,0.0,0.0,0.0,0.0,0.0,0.0,6.494210199999999,5.754332800000004,0.0,0.0,0.0,0.0,0.0,0.0,961026.3660399988,1060063.4699999979,1036743.6200000009,1011644.1799999988,976532.1699999983,981227.6499999989,953982.0880000001
2018-01-20,954721.8430000008,938521.235,947834.5999999996,923907.0179999995,778764.2344900006,925717.4930000002,919361.4940000003,931268.6739999988,944298.5709999987,927554.6420000001,939090.3580000004,958445.5149999995,954349.3110000006,960087.4599999996,946125.1629999992,925165.1409999996,946563.1560000001,934157.4099999997,955718.6100000003,930891.9570000002,779001.9860600004,776002.3541999996,900146.6530000005,915974.177,897925.4370000006,853377.7370000008,853677.3870000007,414154.29563879996,892622.0739999989,409071.5493328009,898073.2116700002,609020.5587299998,886585.686,879527.9529999992,557427.0706800002,854825.9519999998,950307.2450000006,918154.4569999982,895574.9960000011,861667.9269999992,881242.124,910415.4450000005,920550.8519999998,928295.4919999999,940549.059999999,759529.8641400015,413351.07977999886,804607.188000001,1080910.2299999988,1078116.1699999988,1131961.7200000007,1070598.9699999997,1076464.2299999995,1054164.6399999994,1044921.0199999989,1099049.5699999996,1118672.5800000015,1107529.7100000023,1112957.3099999987,1110750.5900000012,1081738.7,1017417.2100000001,1014678.879999999,1024523.4299999994,1011898.6999999998,1021593.6199999996,926788.2067039001,0.0,4.767876999999998,0.0,3.452648800000002,0.0,0.0,0.0,0.0,0.0,19.153804199999996,0.0,35.51263550000001,11.673114099999996,11.262118800000005,0.0,0.0,0.0,0.0,0.0,0.0,0.0,0.0,2.2195152000000102,0.0,0.0,0.0,1.9729079999999963,0.0,0.0
2018-01-30,871143.3822899994,957381.5309999996,1107298.5499999993,1097135.0799999987,1234985.8800000015,933864.9490000006,1092004.2699999996,1078780.980000001,1063809.2299999995,1488205.1569999994,1073312.7499999993,839773.4233999995,1012113.3930000003,770883.6548,1061455.619999999,618731.8720999998,1045655.2900000002,1102754.0899999992,1038274.9499999997,856047.4820000005,1022837.5300000005,1046374.5599999999,1017383.9443369007,0.0,944024.4552547996,1122080.9762000008,1364719.3150000018,1076026.1799999992,1375411.646000001,1036746.033,600957.8128677023,798452.6009626002,862621.2599899992,1053570.8000000003,1012170.0332999999,930702.4518000003,1558746.8199999938,1189210.8999999983,1122516.1599999997,1049296.4599999993,1028379.8300000004,1474302.6699999974,1408499.4799999984,1019856.9400000009,1177881.269999999,975355.0900000003,972877.9400000009,968153.9900000007,1361165.4600000002,1032099.809999999,1040314.4364619995,996874.6099999996,982393.5600000005,787202.8419999994,1046552.208000001,7638.333690999999,684541.7755669992,7925.395384599998,0.0,507891.5880043002,709337.4680000002,876460.1960000006,1017364.9480000004,870191.4348699986,1020603.9750000017,1073400.11,75926.55725599978,0.0,21.126734400000018,0.0,0.0,0.0,0.0,0.0,0.0,0.0,0.0,0.0,10.768883100000012,0.0,0.0,9.946810900000006,3.1237854999999923,0.0,0.0,0.0,0.0,0.0,0.0,0.0,295681.2098029002,1180998.0300000005,1208541.0500000007,1181373.6000000017,1147436.209999999,1102887.4100000025
2018-02-21,1132342.9099999997,783130.4199999998,628301.8910000002,1151591.68,1137221.8600000003,696776.9673999998,882191.5480999999,1112991.7100000016,1108388.7900000003,1168249.1800000004,768468.6963599992,685975.4180000004,1101253.810000001,1111866.370000001,1099646.8999999985,732759.7627739002,194498.48665020007,649882.6584400003,1044335.2300000003,1065277.5900000005,787123.6419999994,1017477.4290000008,866440.5528599994,782248.7990128007,1060885.3600000003,713263.723700001,559280.3137099999,919194.539,1081505.2899999998,1106554.11,925558.8649999999,454247.6231530988,379169.36911009956,917036.3049999996,848900.8819999988,1105868.1800000002,626783.4549999997,1019774.0769999996,772618.6044000005,1011005.7350000008,964071.4366000011,780005.575999999,1089812.3699999994,783145.3441999997,1078439.8300000003,1080690.2800000007,1019578.6590000005,1261205.939999998,1152112.670000001,874592.9429000011,1178085.729999999,866955.1572000002,945165.1510000002,994451.5604999999,941566.7620000007,1126668.1800000009,1029095.3197099989,438838.90456839936,26.470054000000008,130086.90703340003,948999.8280000001,809636.5019999993,992785.6489999994,140077.13691870004,1097539.9049999982,1033615.2000000001,1029628.7999999997,138275.14055539947,0.0,0.0,0.0,0.0,10.440070299999983,0.0,0.0,0.0,0.0,0.0,0.0,0.0,0.0,4.850147400000001,0.0,2.055164100000004,0.0,0.0,0.0,0.0,0.0,712315.6483305,1106952.9800000014,1112543.7299999995,1078794.970000001,1116857.4699999997,1077907.5400000003,1050403.9500000004
2018-02-22,1044746.0099999991,1081019.3299999996,966925.4791199993,1022885.0569999994,895631.1941999992,859794.6187000003,739896.8760000003,1058663.1600000006,1072805.5100000005,1035012.65,660739.0709199992,1019771.5199999986,1000530.7299999989,1002168.2400000009,1012818.1000000001,957478.2765999999,827063.6772000012,975836.6399999994,975733.2599999994,996960.7899999996,743828.3466499994,1049029.0800000017,721430.0229999999,59508.04883860003,0.0,853511.2531097014,1055288.9200000006,1094295.5299999996,312250.02487569954,1168248.1290000002,839433.6770000003,280622.0879920996,218913.8324994994,263283.2957264994,695753.4239999995,1037238.3500000002,1071302.7400000005,686302.6177600005,1107193.6299999997,202963.25977869958,669550.4442599997,180397.8604464977,160231.20319199993,826328.7179999996,968407.6999999998,958932.0829999993,947379.6829999994,930101.6930000002,911935.2040000012,902568.5560000007,899491.1870000015,893000.6749999992,916525.4,912901.5899999979,898323.19864,372123.7279240995,793068.123,916340.5938000001,780012.7727499993,766414.4813012019,608562.1863399992,377291.1356818998,157986.79149999915,239601.09496700007,806692.2334200006,968327.4279999995,1019643.5500000009,275513.30693190097,1.726323400000001,0.0,0.0,3.7814083000000047,0.0,0.0,0.0,0.0,0.0,0.0,2.0551494999999935,13.728245199999986,0.0,16.605404599999986,2.95935710000001,0.0,0.0,0.0,0.0,427957.80631850014,960357.5930800012,790196.6533799998,952396.4226000002,864077.0580699998,974630.8089999999,674786.9304300001,804910.7274900011,965459.0800000008
2018-03-27,977757.7499999999,956963.8399999995,974884.7400000003,973575.3199999984,1222944.5699999994,976395.7300000015,962986.8199999991,947498.6359999997,787861.5939999995,979978.6099999988,976599.5600000002,989926.9300000002,994966.5400000002,997894.89,989605.1999999994,994768.8599999999,994946.8899999986,995662.9900000005,1008359.9600000004,992055.580000001,969101.5099999995,972634.5500000009,981768.9800000002,960811.3999999991,943530.1499999997,933771.6930000014,949052.4169999994,939126.7000000003,960294.7199999997,968407.8599999996,956401.3499999985,950231.5799999997,777687.5438599989,374705.01764720003,0.0,0.0,0.0,0.0,0.0,35784.052480000006,390431.8007299997,397078.97948999994,931610.0049999995,963929.2779999999,968372.4799999994,973301.9800000003,958072.2860000003,763680.1173000003,990996.029999999,814228.0229999999,960660.1799999996,952029.6840000008,985398.2499999999,992074.6300000004,994038.120000001,994264.2800000003,884027.1194800006,118908.49327379996,896445.2150000003,593427.6642499997,980545.2499999997,968621.9700000004,951526.4660000008,849557.5456500014,821641.9069099994,954099.3649999994,926623.8429999998,85946.80496870013,0.0,9.200000002956843e-06,0.0,13.070633900000018,0.0,0.0,0.0,0.0,0.0,6.247591799999993,0.0,0.0,0.0,0.0,0.0,0.0,0.0,0.0,0.0,0.0,35751.661072500014,841733.2624400004,1007906.6899999996,379857.56899999885,699999.4730000001,882701.7719999992,984638.1400000014,980137.8600000013
2018-03-28,988282.3900000011,986016.6600000005,983019.5099999994,945639.7699999994,973181.1799999994,1027602.8300000012,993784.33,990578.5200000007,668914.8830000005,834268.9560000002,978074.4999999997,1003618.5099999999,1005702.4300000002,980533.9099999995,984115.0800000017,993885.26,986949.9700000002,985464.3700000003,976721.6299999994,497542.3158199998,965902.500000001,984151.2200000008,992996.6600000001,977375.1199999994,975555.8899999994,958640.3050000009,951684.3399999993,943991.288,949135.0849999997,945080.4180000003,669610.0637699995,564497.7056899996,870210.7849999998,624236.9208419996,738124.3199999998,352102.4913559,421362.21340479975,907192.6769999992,906895.094000001,906739.0040000002,915567.7560000003,679773.2282599995,697563.4224499996,732211.9614000006,684992.2466100008,894875.2419999999,880529.2649999994,681395.0024999991,833316.6239999994,833769.0799999994,837150.6809999999,663725.9584100009,819925.8070000006,820488.4773999996,565285.0594400002,510569.9920089996,787349.2797199996,753620.0728399996,706397.2144600002,897620.1630000006,685723.1366200004,872071.7439999996,686893.1609799992,899254.6609999996,862976.1420000009,616630.1505099993,824626.1349999994,112038.6937433003,0.0,0.0,0.0,0.0,16.194426299999996,9.289202299999987,0.0,0.0,0.0,0.0,3.288196899999985,0.0,0.0,0.0,0.0,0.0,9.70028029999997,0.0,0.0,0.0,3504.3219273,586652.9536899996,1005761.090000001,969144.7300000003,938696.5499999998,943713.786,905813.3789999996,893527.3359999998
2018-03-29,872608.6969999992,863058.3539999987,920374.8510000008,574889.0162100004,760453.7489999996,957433.2299999996,958932.690000001,971046.7200000013,832637.3530000007,975964.25,980197.5600000004,807504.6310000016,984960.2600000006,815760.5125199989,824265.929,655540.016090001,947962.9579999992,1024814.0800000002,1008625.829999999,1013009.1399999999,1023540.0799999998,1069439.6400000004,464740.2158587997,927487.1190000003,1028290.869999999,1009075.2299999995,1016371.7099999993,1004709.04,807305.5014519999,842377.4469999995,1032860.3299999995,960662.1559999981,228767.66963409938,539895.7805899999,759296.5830899999,1057516.8499999999,788086.2399999984,963278.4950000008,1107273.5300000005,670891.0159999995,1095147.2800000012,1107261.63,1122697.8899999985,844290.9266000007,1089916.8399999994,904421.3447800016,614915.3468599995,781878.4718600011,997597.0130000004,981535.2448499994,211180.72400800002,999396.8749999987,1010473.0499999998,988178.8700000003,989649.2400000005,990684.4399999996,986038.84,959613.889999999,941876.6500000015,924790.0010000004,912711.4290000004,901528.2349999995,893559.9829999985,907284.0510000016,681150.9691400001,962496.0300000014,304662.41803299973,0.0,0.0,0.0,3.781381899999991,0.0,3.6170122000000053,0.0,0.0,0.0,0.0,0.0,0.0,12.001960499999996,0.0,0.0,0.0,0.0,0.0,12.084152399999995,0.0,9.864606499999994,0.0,439415.12224999996,939781.381,1110755.9899999998,1081343.5200000019,1083413.0799999991,1066449.6800000018,1054325.4400000006
2018-03-30,1046522.1700000004,1049992.0600000003,1037535.7400000006,1023710.8400000008,974304.8315073033,799721.3302487993,420283.4784382996,917800.9940000009,961960.6400000008,974360.0300000004,968470.8900000001,981426.4100000015,973256.5299999996,971568.7200000009,741281.8826399999,918917.0960000004,649395.4872399992,937990.144999999,921750.2739999988,905538.1519999999,909274.3189999993,924969.3319999989,909245.9430000002,889948.8759999992,879555.6600000001,863977.742,562342.9522307002,7.234089899999997,0.0,20.6335089,3.8636290999999967,18.41394899999999,0.0,2.712792899999999,15.536814700000011,0.0,13.070616399999993,1.1509086000000028,0.0,0.0,0.0,0.0,0.24661609999999579,0.0,2.9594090000000057,0.0,0.0,4.521274099999991,0.1643818000000028,0.0,0.24666200000000318,0.0,0.0,0.0,0.0,0.0,0.0,0.0,0.0,0.0,3.123816699999999,0.0,4.274634500000003,2.5484193000000093,0.0,1.67999999927948e-05,16.934246199999986,0.24664299999999584,0.0,0.0,0.0,16.029984700000004,8.549351799999995,4.028054600000013,0.0,0.0,0.0,0.0,0.0,0.0,0.0,0.0,3.863626800000011,0.0,0.0,0.0,0.0,0.0,0.0,0.0,0.0,0.0,0.0,3.1237808000000036,11.837496000000003,8.700000006189867e-06
2018-03-31,0.0,0.0,0.0,0.0,9.617989499999998,11.673123600000011,0.0,0.0,0.0,0.0,0.0,0.0,18.660594400000026,0.32882789999999995,0.0,0.0,0.0,0.0,8.384905700000003,0.0,0.0,21.455571400000004,0.0,0.0,0.0,0.0,0.0,237237.35392669993,994262.628999999,708795.4047199986,990508.5800000002,970685.9399999989,993508.5800000001,968451.45,942524.1720000005,966773.3699999993,935364.3499999996,946507.6799999999,91462.08143999997,538123.2669999999,858400.8449999996,904711.3359999993,903853.9000000006,903070.2020000005,683581.5269069987,867616.7889999987,833985.1969999995,823904.0619999992,828311.0080000006,827354.7739999999,522111.17008000024,628748.6635800005,815968.9699999992,656849.8306800005,638547.8480299999,814389.2399999995,819172.5780000009,821085.1680000006,856604.5119999979,865948.9520000016,890153.893999999,596772.7801999997,711221.3987399996,882483.6780000001,652270.7336499988,870249.6279999999,869422.6849999995,879868.4919999999,688532.3529999995,879638.3119999999,599356.5472699997,669175.2535599985,835203.5619999996,737032.1681600005,719072.6656199999,621355.8087300009,240037.33781349997,947525.7040000003,1085002.6400000006,1118375.4899999988,1113784.139999999,1123747.7900000012,1114384.709999999,1122389.2600000007,882251.0584099998,1116990.7200000004,1114853.390000001,1081894.1524000003,664889.6987572003,865685.6940999996,804641.3683999997,971483.5000000013,1131926.4800000002,684891.6329999994,1085933.0400000005,814226.6551899993
2018-04-01,1061934.7199999995,572647.1459853016,69.87436379999998,52183.40585160001,1074500.6150000012,1060051.8770499998,1189583.5499999989,1034215.9900000005,864900.6799999999,1013209.2299999997,822044.8566600006,963983.5400000009,1008996.0099999997,981601.9499999993,725186.3233799991,412607.8493064001,18.742825399999994,0.0,16.4410172,0.0,0.0,0.0,0.0,0.0,0.0,0.0,0.0,0.0,0.0,0.0,0.0,0.0,0.0,0.0,0.7398410000000032,0.0,17.75633300000001,0.0,9.70020589999999,0.0,0.0,0.0,0.0,0.0,0.0,0.0,0.0,0.0,0.0,0.0,0.0,0.0,0.0,0.0,0.0,0.0,0.0,6.987458200000017,19.893639399999987,0.0,0.0,16.030030699999994,6.823043200000015,0.0,0.0,0.0,0.0,0.0,0.0,5.096740699999996,0.0,0.0,0.0,0.0,0.0,0.0,0.0,0.0,0.0,0.0,1.233073600000016,0.0,0.0,9.700209099999979,0.0,0.0,0.0,0.0,2.2195368,0.0,0.0,0.0,0.0,0.0,1.8085059000000039,0.0
